%YAML 1.1
%TAG !u! tag:unity3d.com,2011:
--- !u!114 &11400000
MonoBehaviour:
  m_ObjectHideFlags: 0
  m_CorrespondingSourceObject: {fileID: 0}
  m_PrefabInstance: {fileID: 0}
  m_PrefabAsset: {fileID: 0}
  m_GameObject: {fileID: 0}
  m_Enabled: 1
  m_EditorHideFlags: 0
  m_Script: {fileID: 11500000, guid: 0375908dd94193b408b2e3fb2c9168da, type: 3}
  m_Name: EnemySettings
  m_EditorClassIdentifier: 
  moveDelay: 0.7
  moveDistance: 2
  moveVelocity: 5
  health: 12
  deathEffect: {fileID: 4373632664339127605, guid: 939522ef02fe2e64c9766bdea299b373,
    type: 3}
